JK2/simulation/qsim/FLIPFLOPJK2.msim.vcd
$comment
	File created using the following command:
		vcd file FLIPFLOPJK2.msim.vcd -direction
$end
$date
	Sun Aug 05 14:22:19 2018
$end
$version
	ModelSim Version 10.1d
$end
$timescale
	1ps
$end
$scope module FLIPFLOPJK2_vlg_vec_tst $end
$var reg 1 ! clk $end
$var reg 1 " H $end
$var reg 1 # M $end
$var reg 1 $ Q0 $end
$var reg 1 % Q1 $end
$var reg 1 & reset $end
$var wire 1 ' Q2 $end
$var wire 1 ( sampler $end
$scope module i1 $end
$var wire 1 ) gnd $end
$var wire 1 * vcc $end
$var wire 1 + unknown $end
$var tri1 1 , devclrn $end
$var tri1 1 - devpor $end
$var tri1 1 . devoe $end
$var wire 1 / Q0~input_o $end
$var wire 1 0 Q2~output_o $end
$var wire 1 1 clk~input_o $end
$var wire 1 2 H~input_o $end
$var wire 1 3 M~input_o $end
$var wire 1 4 Q1~input_o $end
$var wire 1 5 inst1~0_combout $end
$var wire 1 6 inst1~1_combout $end
$var wire 1 7 reset~input_o $end
$var wire 1 8 inst1~q $end
$upscope $end
$upscope $end
$enddefinitions $end
#0
$dumpvars
0!
0"
0#
0$
0%
1&
0'
x(
0)
1*
x+
1,
1-
1.
0/
00
01
02
03
04
05
16
17
08
$end
#10000
1!
11
0(
18
06
10
1'
#20000
0&
1"
0!
07
12
01
1(
15
16
08
06
00
0'
#30000
1!
11
0(
#40000
1&
0"
0!
17
02
01
1(
05
16
#50000
1!
11
0(
18
06
10
1'
#60000
1"
0!
12
01
1(
15
16
#70000
1!
11
0(
#80000
1$
1#
0"
0!
1/
13
02
01
1(
#90000
1!
11
0(
#100000
1"
0!
12
01
1(
#110000
1!
11
0(
#120000
0"
0!
02
01
1(
#130000
1!
11
0(
#140000
1"
0!
12
01
1(
#150000
1!
11
0(
#160000
1%
0$
0#
0"
0!
14
0/
03
02
01
1(
#170000
1!
11
0(
#180000
1"
0!
12
01
1(
05
06
#190000
1!
11
0(
08
16
00
0'
#200000
0"
0!
02
01
1(
15
06
#210000
1!
11
0(
#220000
1"
0!
12
01
1(
05
16
#230000
1!
11
0(
18
06
10
1'
#240000
1$
1#
0"
0!
1/
13
02
01
1(
15
16
#250000
1!
11
0(
#260000
1"
0!
12
01
1(
05
06
#270000
1!
11
0(
08
16
00
0'
#280000
0"
0!
02
01
1(
15
06
#290000
1!
11
0(
#300000
1"
0!
12
01
1(
05
16
#310000
1!
11
0(
18
06
10
1'
#320000
0%
0$
0#
0"
0!
04
0/
03
02
01
1(
#330000
1!
11
0(
08
16
00
0'
#340000
1"
0!
12
01
1(
15
06
#350000
1!
11
0(
#360000
0"
0!
02
01
1(
05
16
#370000
1!
11
0(
18
06
10
1'
#380000
1"
0!
12
01
1(
15
16
#390000
1!
11
0(
#400000
1$
1#
0"
0!
1/
13
02
01
1(
#410000
1!
11
0(
#420000
1"
0!
12
01
1(
#430000
1!
11
0(
#440000
0"
0!
02
01
1(
#450000
1!
11
0(
#460000
1"
0!
12
01
1(
#470000
1!
11
0(
#480000
1%
0$
0#
0"
0!
14
0/
03
02
01
1(
#490000
1!
11
0(
#500000
1"
0!
12
01
1(
05
06
#510000
1!
11
0(
08
16
00
0'
#520000
0"
0!
02
01
1(
15
06
#530000
1!
11
0(
#540000
1"
0!
12
01
1(
05
16
#550000
1!
11
0(
18
06
10
1'
#560000
1$
1#
0"
0!
1/
13
02
01
1(
15
16
#570000
1!
11
0(
#580000
1"
0!
12
01
1(
05
06
#590000
1!
11
0(
08
16
00
0'
#600000
0"
0!
02
01
1(
15
06
#610000
1!
11
0(
#620000
1"
0!
12
01
1(
05
16
#630000
1!
11
0(
18
06
10
1'
#640000
0%
0$
0#
0"
0!
04
0/
03
02
01
1(
#650000
1!
11
0(
08
16
00
0'
#660000
1"
0!
12
01
1(
15
06
#670000
1!
11
0(
#680000
0"
0!
02
01
1(
05
16
#690000
1!
11
0(
18
06
10
1'
#700000
1"
0!
12
01
1(
15
16
#710000
1!
11
0(
#720000
1$
1#
0"
0!
1/
13
02
01
1(
#730000
1!
11
0(
#740000
1"
0!
12
01
1(
#750000
1!
11
0(
#760000
0"
0!
02
01
1(
#770000
1!
11
0(
#780000
1"
0!
12
01
1(
#790000
1!
11
0(
#800000
1%
0$
0#
0"
0!
14
0/
03
02
01
1(
#810000
1!
11
0(
#820000
1"
0!
12
01
1(
05
06
#830000
1!
11
0(
08
16
00
0'
#840000
0"
0!
02
01
1(
15
06
#850000
1!
11
0(
#860000
1"
0!
12
01
1(
05
16
#870000
1!
11
0(
18
06
10
1'
#880000
1$
1#
0"
0!
1/
13
02
01
1(
15
16
#890000
1!
11
0(
#900000
1"
0!
12
01
1(
05
06
#910000
1!
11
0(
08
16
00
0'
#920000
0"
0!
02
01
1(
15
06
#930000
1!
11
0(
#940000
1"
0!
12
01
1(
05
16
#950000
1!
11
0(
18
06
10
1'
#960000
0%
0$
0#
0"
0!
04
0/
03
02
01
1(
#970000
1!
11
0(
08
16
00
0'
#980000
1"
0!
12
01
1(
15
06
#990000
1!
11
0(
