JK1/simulation/qsim/FLIPFLOP_JK1.msim.vcd
$comment
	File created using the following command:
		vcd file FLIPFLOP_JK1.msim.vcd -direction
$end
$date
	Mon Aug 06 10:46:36 2018
$end
$version
	ModelSim Version 10.1d
$end
$timescale
	1ps
$end
$scope module FLIPFLOP_JK1_vlg_vec_tst $end
$var reg 1 ! CLK $end
$var reg 1 " H $end
$var reg 1 # M $end
$var reg 1 $ Q0 $end
$var reg 1 % RESET $end
$var wire 1 & SALIDA_Q1 $end
$var wire 1 ' sampler $end
$scope module i1 $end
$var wire 1 ( gnd $end
$var wire 1 ) vcc $end
$var wire 1 * unknown $end
$var tri1 1 + devclrn $end
$var tri1 1 , devpor $end
$var tri1 1 - devoe $end
$var wire 1 . M~input_o $end
$var wire 1 / SALIDA_Q1~output_o $end
$var wire 1 0 CLK~input_o $end
$var wire 1 1 Q0~input_o $end
$var wire 1 2 H~input_o $end
$var wire 1 3 inst6~0_combout $end
$var wire 1 4 RESET~input_o $end
$var wire 1 5 inst6~q $end
$upscope $end
$upscope $end
$enddefinitions $end
#0
$dumpvars
0!
0"
0#
0$
1%
0&
x'
0(
1)
x*
1+
1,
1-
0.
0/
00
01
02
13
14
05
$end
#10000
0%
1!
04
10
0'
#20000
1"
1%
0!
12
14
00
1'
#30000
1!
10
0'
15
03
1/
1&
#40000
1#
0"
0!
1.
02
00
1'
#50000
1!
10
0'
05
13
0/
0&
#60000
1"
0!
12
00
1'
03
#70000
1!
10
0'
#80000
1$
0#
0"
0!
11
0.
02
00
1'
13
#90000
1!
10
0'
15
1/
1&
#100000
1"
0!
12
00
1'
#110000
1!
10
0'
#120000
1#
0"
0!
1.
02
00
1'
#130000
1!
10
0'
#140000
1"
0!
12
00
1'
03
#150000
1!
10
0'
05
13
0/
0&
#160000
0$
0#
0"
0!
01
0.
02
00
1'
#170000
1!
10
0'
15
03
1/
1&
#180000
1"
0!
12
00
1'
#190000
1!
10
0'
05
13
0/
0&
#200000
1#
0"
0!
1.
02
00
1'
#210000
1!
10
0'
15
03
1/
1&
#220000
1"
0!
12
00
1'
13
#230000
1!
10
0'
#240000
1$
0#
0"
0!
11
0.
02
00
1'
#250000
1!
10
0'
#260000
1"
0!
12
00
1'
#270000
1!
10
0'
#280000
1#
0"
0!
1.
02
00
1'
#290000
1!
10
0'
#300000
1"
0!
12
00
1'
03
#310000
1!
10
0'
05
13
0/
0&
#320000
0$
0#
0"
0!
01
0.
02
00
1'
#330000
1!
10
0'
15
03
1/
1&
#340000
1"
0!
12
00
1'
#350000
1!
10
0'
05
13
0/
0&
#360000
1#
0"
0!
1.
02
00
1'
#370000
1!
10
0'
15
03
1/
1&
#380000
1"
0!
12
00
1'
13
#390000
1!
10
0'
#400000
1$
0#
0"
0!
11
0.
02
00
1'
#410000
1!
10
0'
#420000
1"
0!
12
00
1'
#430000
1!
10
0'
#440000
1#
0"
0!
1.
02
00
1'
#450000
1!
10
0'
#460000
1"
0!
12
00
1'
03
#470000
1!
10
0'
05
13
0/
0&
#480000
0$
0#
0"
0!
01
0.
02
00
1'
#490000
1!
10
0'
15
03
1/
1&
#500000
1"
0!
12
00
1'
#510000
1!
10
0'
05
13
0/
0&
#520000
1#
0"
0!
1.
02
00
1'
#530000
1!
10
0'
15
03
1/
1&
#540000
1"
0!
12
00
1'
13
#550000
1!
10
0'
#560000
1$
0#
0"
0!
11
0.
02
00
1'
#570000
1!
10
0'
#580000
1"
0!
12
00
1'
#590000
1!
10
0'
#600000
1#
0"
0!
1.
02
00
1'
#610000
1!
10
0'
#620000
1"
0!
12
00
1'
03
#630000
1!
10
0'
05
13
0/
0&
#640000
0$
0#
0"
0!
01
0.
02
00
1'
#650000
1!
10
0'
15
03
1/
1&
#660000
1"
0!
12
00
1'
#670000
1!
10
0'
05
13
0/
0&
#680000
1#
0"
0!
1.
02
00
1'
#690000
1!
10
0'
15
03
1/
1&
#700000
1"
0!
12
00
1'
13
#710000
1!
10
0'
#720000
1$
0#
0"
0!
11
0.
02
00
1'
#730000
1!
10
0'
#740000
1"
0!
12
00
1'
#750000
1!
10
0'
#760000
1#
0"
0!
1.
02
00
1'
#770000
1!
10
0'
#780000
1"
0!
12
00
1'
03
#790000
1!
10
0'
05
13
0/
0&
#800000
0$
0#
0"
0!
01
0.
02
00
1'
#810000
1!
10
0'
15
03
1/
1&
#820000
1"
0!
12
00
1'
#830000
1!
10
0'
05
13
0/
0&
#840000
1#
0"
0!
1.
02
00
1'
#850000
1!
10
0'
15
03
1/
1&
#860000
1"
0!
12
00
1'
13
#870000
1!
10
0'
#880000
1$
0#
0"
0!
11
0.
02
00
1'
#890000
1!
10
0'
#900000
1"
0!
12
00
1'
#910000
1!
10
0'
#920000
1#
0"
0!
1.
02
00
1'
#930000
1!
10
0'
#940000
1"
0!
12
00
1'
03
#950000
1!
10
0'
05
13
0/
0&
#960000
0$
0#
0"
0!
01
0.
02
00
1'
#970000
1!
10
0'
15
03
1/
1&
#980000
1"
0!
12
00
1'
#990000
1!
10
0'
05
13
0/
0&
