JK0/simulation/qsim/FLIPFLOP_JK0.msim.vcd
$comment
	File created using the following command:
		vcd file FLIPFLOP_JK0.msim.vcd -direction
$end
$date
	Mon Aug 06 10:19:17 2018
$end
$version
	ModelSim Version 10.1d
$end
$timescale
	1ps
$end
$scope module FLIPFLOP_JK0_vlg_vec_tst $end
$var reg 1 ! CLK $end
$var reg 1 " M $end
$var reg 1 # RESET $end
$var wire 1 $ SALIDA_Q0 $end
$var wire 1 % sampler $end
$scope module i1 $end
$var wire 1 & gnd $end
$var wire 1 ' vcc $end
$var wire 1 ( unknown $end
$var tri1 1 ) devclrn $end
$var tri1 1 * devpor $end
$var tri1 1 + devoe $end
$var wire 1 , SALIDA_Q0~output_o $end
$var wire 1 - CLK~input_o $end
$var wire 1 . M~input_o $end
$var wire 1 / inst~0_combout $end
$var wire 1 0 RESET~input_o $end
$var wire 1 1 inst~q $end
$upscope $end
$upscope $end
$enddefinitions $end
#0
$dumpvars
0!
0"
1#
0$
x%
0&
1'
x(
1)
1*
1+
0,
0-
0.
0/
10
01
$end
#10000
0#
00
0%
#20000
1!
1#
1-
10
1%
#40000
1"
0!
1.
0-
0%
1/
#60000
1!
1-
1%
11
0/
1,
1$
#80000
0"
0!
0.
0-
0%
1/
#100000
1!
1-
1%
#120000
1"
0!
1.
0-
0%
0/
#140000
1!
1-
1%
01
1/
0,
0$
#160000
0"
0!
0.
0-
0%
0/
#180000
1!
1-
1%
#200000
1"
0!
1.
0-
0%
1/
#220000
1!
1-
1%
11
0/
1,
1$
#240000
0"
0!
0.
0-
0%
1/
#260000
1!
1-
1%
#280000
1"
0!
1.
0-
0%
0/
#300000
1!
1-
1%
01
1/
0,
0$
#320000
0"
0!
0.
0-
0%
0/
#340000
1!
1-
1%
#360000
1"
0!
1.
0-
0%
1/
#380000
1!
1-
1%
11
0/
1,
1$
#400000
0"
0!
0.
0-
0%
1/
#420000
1!
1-
1%
#440000
1"
0!
1.
0-
0%
0/
#460000
1!
1-
1%
01
1/
0,
0$
#480000
0"
0!
0.
0-
0%
0/
#500000
1!
1-
1%
#520000
1"
0!
1.
0-
0%
1/
#540000
1!
1-
1%
11
0/
1,
1$
#560000
0"
0!
0.
0-
0%
1/
#580000
1!
1-
1%
#600000
1"
0!
1.
0-
0%
0/
#620000
1!
1-
1%
01
1/
0,
0$
#640000
0"
0!
0.
0-
0%
0/
#660000
1!
1-
1%
#680000
1"
0!
1.
0-
0%
1/
#700000
1!
1-
1%
11
0/
1,
1$
#720000
0"
0!
0.
0-
0%
1/
#740000
1!
1-
1%
#760000
1"
0!
1.
0-
0%
0/
#780000
1!
1-
1%
01
1/
0,
0$
#800000
0"
0!
0.
0-
0%
0/
#820000
1!
1-
1%
#840000
1"
0!
1.
0-
0%
1/
#860000
1!
1-
1%
11
0/
1,
1$
#880000
0"
0!
0.
0-
0%
1/
#900000
1!
1-
1%
#920000
1"
0!
1.
0-
0%
0/
#940000
1!
1-
1%
01
1/
0,
0$
#960000
0"
0!
0.
0-
0%
0/
#980000
1!
1-
1%
