TF03PAP/simulation/qsim/MOTORPAP.msim.vcd
$comment
	File created using the following command:
		vcd file MOTORPAP.msim.vcd -direction
$end
$date
	Wed Aug 08 08:57:11 2018
$end
$version
	ModelSim Version 10.1d
$end
$timescale
	1ps
$end
$scope module MOTORPAP_vlg_vec_tst $end
$var reg 1 ! CLK $end
$var reg 1 " HORARIO $end
$var reg 1 # MODO $end
$var reg 1 $ nRST $end
$var wire 1 % ERRORPOSICION $end
$var wire 1 & INCREMENTO [2] $end
$var wire 1 ' INCREMENTO [1] $end
$var wire 1 ( INCREMENTO [0] $end
$var wire 1 ) POSICION [2] $end
$var wire 1 * POSICION [1] $end
$var wire 1 + POSICION [0] $end
$var wire 1 , sampler $end
$scope module i1 $end
$var wire 1 - gnd $end
$var wire 1 . vcc $end
$var wire 1 / unknown $end
$var tri1 1 0 devclrn $end
$var tri1 1 1 devpor $end
$var tri1 1 2 devoe $end
$var wire 1 3 CLK~input_o $end
$var wire 1 4 ERRORPOSICION~output_o $end
$var wire 1 5 INCREMENTO[2]~output_o $end
$var wire 1 6 INCREMENTO[1]~output_o $end
$var wire 1 7 INCREMENTO[0]~output_o $end
$var wire 1 8 POSICION[2]~output_o $end
$var wire 1 9 POSICION[1]~output_o $end
$var wire 1 : POSICION[0]~output_o $end
$var wire 1 ; MODO~input_o $end
$var wire 1 < inst|inst3~0_combout $end
$var wire 1 = nRST~input_o $end
$var wire 1 > inst|inst3~q $end
$var wire 1 ? HORARIO~input_o $end
$var wire 1 @ inst|inst2~0_combout $end
$var wire 1 A inst|inst2~q $end
$var wire 1 B inst2|inst2|inst1~q $end
$var wire 1 C inst2|inst2|inst2~q $end
$var wire 1 D inst|inst1~0_combout $end
$var wire 1 E inst|inst1~q $end
$var wire 1 F inst2|inst2|inst~q $end
$var wire 1 G inst2|inst|inst2|inst1~combout $end
$var wire 1 H inst2|inst|inst1|inst1~combout $end
$var wire 1 I inst2|inst|inst|inst~combout $end
$upscope $end
$upscope $end
$enddefinitions $end
#0
$dumpvars
1!
x"
x#
1$
0%
0(
0'
0&
0+
0*
0)
x,
0-
1.
x/
10
11
12
13
04
05
06
07
08
09
0:
x;
x<
1=
0>
x?
x@
0A
0B
0C
xD
0E
0F
1G
1H
0I
$end
#10000
0$
0=
0,
#20000
1$
1=
1,
#80000
0!
0#
0"
03
0;
0?
0,
0<
1@
1D
#85000
1!
13
1,
1E
1A
0G
0@
0H
18
19
1)
1*
15
16
1&
1'
#90000
0!
03
0,
#95000
1!
13
1,
1F
1B
0A
1@
0D
09
0*
#100000
0!
03
0,
#105000
1!
13
1,
0B
0E
1A
0@
08
19
0)
1*
#110000
0!
03
0,
#115000
1!
13
1,
0F
1B
0A
1@
1D
09
0*
#120000
0!
03
0,
#125000
1!
13
1,
0B
1E
1A
0@
18
19
1)
1*
#130000
0!
03
0,
#135000
1!
13
1,
1F
1B
0A
1@
0D
09
0*
#140000
0!
03
0,
#145000
1!
13
1,
0B
0E
1A
0@
08
19
0)
1*
#150000
0!
03
0,
#155000
1!
13
1,
0F
1B
0A
1@
1D
09
0*
#160000
0!
03
0,
#165000
1!
13
1,
0B
1E
1A
0@
18
19
1)
1*
#170000
0!
03
0,
#175000
1!
13
1,
1F
1B
0A
1@
0D
09
0*
#180000
x#
x"
x;
x?
0,
x<
x@
xD
#200000
0!
1#
1"
03
1;
1?
1,
1<
0@
1D
#205000
1!
13
0,
0B
1>
1G
1H
0<
1@
1:
1+
1I
05
06
17
0&
0'
1(
#210000
x#
x"
x;
x?
1,
x<
x@
xD
#240000
0!
0#
0"
03
0;
0?
0,
1<
1@
0D
#245000
1!
13
1,
1C
0E
1A
0G
0H
0@
08
19
0)
1*
0I
15
16
07
1&
1'
0(
#250000
0!
03
0,
#255000
1!
13
1,
0F
1B
0A
1@
1D
09
0*
#260000
0!
03
0,
#265000
1!
13
1,
0B
1E
1A
0@
18
19
1)
1*
#270000
0!
03
0,
#275000
1!
13
1,
1F
1B
0A
1@
0D
09
0*
#280000
0!
03
0,
#285000
1!
13
1,
0B
0E
1A
0@
08
19
0)
1*
#290000
0!
03
0,
#295000
1!
13
1,
0F
1B
0A
1@
1D
09
0*
#300000
0!
03
0,
#305000
1!
13
1,
0B
1E
1A
0@
18
19
1)
1*
#310000
0!
03
0,
#315000
1!
13
1,
1F
1B
0A
1@
0D
09
0*
#320000
0!
03
0,
#325000
1!
13
1,
0B
0E
1A
0@
08
19
0)
1*
#330000
0!
03
0,
#335000
1!
13
1,
0F
1B
0A
1@
1D
09
0*
#340000
x#
x"
x;
x?
0,
x<
x@
xD
#360000
0!
1#
1"
03
1;
1?
1,
0<
1@
0D
#365000
1!
13
0,
0B
1A
0>
1G
1H
1<
19
0:
1*
0+
1I
05
06
17
0&
0'
1(
#370000
x#
x"
x;
x?
1,
x<
x@
xD
#400000
0!
0#
1"
03
0;
1?
0,
0<
0@
1D
#405000
1!
13
1,
0C
1B
1E
0A
0H
1@
18
09
1)
0*
0I
16
07
1'
0(
#410000
0!
03
0,
#415000
1!
13
1,
1F
0B
1A
0@
0D
19
1*
#420000
0!
03
0,
#425000
1!
13
1,
1B
0E
0A
1@
08
09
0)
0*
#430000
0!
03
0,
#435000
1!
13
1,
0F
0B
1A
0@
1D
19
1*
#440000
0!
03
0,
#445000
1!
13
1,
1B
1E
0A
1@
18
09
1)
0*
#450000
0!
03
0,
#455000
1!
13
1,
1F
0B
1A
0@
0D
19
1*
#460000
0!
03
0,
#465000
1!
13
1,
1B
0E
0A
1@
08
09
0)
0*
#470000
0!
03
0,
#475000
1!
13
1,
0F
0B
1A
0@
1D
19
1*
#480000
0!
03
0,
#485000
1!
13
1,
1B
1E
0A
1@
18
09
1)
0*
#490000
0!
03
0,
#495000
1!
13
1,
1F
0B
1A
0@
0D
19
1*
#500000
x#
x"
x;
x?
0,
x<
x@
xD
#520000
0!
1#
1"
03
1;
1?
1,
1<
1@
1D
#525000
1!
13
0,
1B
1>
1H
0<
0@
0D
1:
1+
1I
06
17
0'
1(
#530000
x#
x"
x;
x?
1,
x<
x@
xD
#560000
0!
0#
1"
03
0;
1?
0,
1<
0@
0D
#565000
1!
13
1,
1C
0E
0A
0H
1@
08
09
0)
0*
0I
16
07
1'
0(
#570000
0!
03
0,
#575000
1!
13
1,
0F
0B
1A
0@
1D
19
1*
#580000
0!
03
0,
#585000
1!
13
1,
1B
1E
0A
1@
18
09
1)
0*
#590000
0!
03
0,
#595000
1!
13
1,
1F
0B
1A
0@
0D
19
1*
#600000
0!
03
0,
#605000
1!
13
1,
1B
0E
0A
1@
08
09
0)
0*
#610000
0!
03
0,
#615000
1!
13
1,
0F
0B
1A
0@
1D
19
1*
#620000
0!
03
0,
#625000
1!
13
1,
1B
1E
0A
1@
18
09
1)
0*
#630000
0!
03
0,
#635000
1!
13
1,
1F
0B
1A
0@
0D
19
1*
#640000
0!
03
0,
#645000
1!
13
1,
1B
0E
0A
1@
08
09
0)
0*
#650000
0!
03
0,
#655000
1!
13
1,
0F
0B
1A
0@
1D
19
1*
#660000
x#
x"
x;
x?
0,
x<
x@
xD
#720000
0!
1#
0"
03
1;
0?
1,
0<
1@
0D
#725000
1!
13
0,
1B
0>
0G
1<
0@
0:
0+
1I
15
17
1&
1(
#730000
0!
03
1,
#735000
1!
13
0,
0C
0A
1>
0<
09
1:
0*
1+
#740000
0!
03
1,
#745000
1!
13
0,
1C
0B
0>
1<
1@
1D
0:
0+
#750000
0!
03
1,
#755000
1!
13
0,
0C
1E
1A
1>
0<
18
19
1:
1)
1*
1+
#760000
0!
03
1,
#765000
1!
13
0,
1F
1C
1B
0>
1<
0@
0:
0+
#770000
0!
03
1,
#775000
1!
13
0,
0C
0A
1>
0<
09
1:
0*
1+
#780000
0!
03
1,
#785000
1!
13
0,
1C
0B
0>
1<
1@
0D
0:
0+
#790000
0!
03
1,
#795000
1!
13
0,
0C
0E
1A
1>
0<
08
19
1:
0)
1*
1+
#800000
0!
03
1,
#805000
1!
13
0,
0F
1C
1B
0>
1<
0@
0:
0+
#810000
0!
03
1,
#815000
1!
13
0,
0C
0A
1>
0<
09
1:
0*
1+
#820000
x#
x"
x;
x?
1,
x<
x@
xD
#880000
0!
1#
1"
03
1;
1?
0,
0<
1@
0D
#885000
1!
13
1,
1C
0B
1A
0>
1G
1H
1<
19
0:
1*
0+
05
06
0&
0'
#890000
0!
03
0,
#895000
1!
13
1,
0C
1B
1>
0<
0@
1D
1:
1+
#900000
0!
03
0,
#905000
1!
13
1,
1C
1E
0A
0>
1<
18
09
0:
1)
0*
0+
#910000
0!
03
0,
#915000
1!
13
1,
1F
0C
0B
1>
0<
1@
1:
1+
#920000
0!
03
0,
#925000
1!
13
1,
1C
1A
0>
1<
19
0:
1*
0+
#930000
0!
03
0,
#935000
1!
13
1,
0C
1B
1>
0<
0@
0D
1:
1+
#940000
0!
03
0,
#945000
1!
13
1,
1C
0E
0A
0>
1<
08
09
0:
0)
0*
0+
#950000
0!
03
0,
#955000
1!
13
1,
0F
0C
0B
1>
0<
1@
1:
1+
#960000
0!
03
0,
#965000
1!
13
1,
1C
1A
0>
1<
19
0:
1*
0+
#970000
0!
03
0,
#975000
1!
13
1,
0C
1B
1>
0<
0@
1D
1:
1+
#980000
x#
x"
x;
x?
0,
x<
x@
xD
