CONTROLADOR/simulation/qsim/CONTROLADOR_COMPLETO.msim.vcd
$comment
	File created using the following command:
		vcd file CONTROLADOR_COMPLETO.msim.vcd -direction
$end
$date
	Sun Aug 05 11:10:00 2018
$end
$version
	ModelSim Version 10.1d
$end
$timescale
	1ps
$end
$scope module PRUEBA_vlg_vec_tst $end
$var reg 1 ! CLK $end
$var reg 1 " HORARIO $end
$var reg 1 # MODO $end
$var reg 1 $ nRST $end
$var wire 1 % ERROR $end
$var wire 1 & POS [2] $end
$var wire 1 ' POS [1] $end
$var wire 1 ( POS [0] $end
$var wire 1 ) Q0 $end
$var wire 1 * Q1 $end
$var wire 1 + Q2 $end
$var wire 1 , sampler $end
$scope module i1 $end
$var wire 1 - gnd $end
$var wire 1 . vcc $end
$var wire 1 / unknown $end
$var tri1 1 0 devclrn $end
$var tri1 1 1 devpor $end
$var tri1 1 2 devoe $end
$var wire 1 3 Q1~output_o $end
$var wire 1 4 Q0~output_o $end
$var wire 1 5 Q2~output_o $end
$var wire 1 6 ERROR~output_o $end
$var wire 1 7 POS[2]~output_o $end
$var wire 1 8 POS[1]~output_o $end
$var wire 1 9 POS[0]~output_o $end
$var wire 1 : CLK~input_o $end
$var wire 1 ; CLK~inputclkctrl_outclk $end
$var wire 1 < HORARIO~input_o $end
$var wire 1 = MODO~input_o $end
$var wire 1 > inst|inst3~0_combout $end
$var wire 1 ? nRST~input_o $end
$var wire 1 @ nRST~inputclkctrl_outclk $end
$var wire 1 A inst|inst3~q $end
$var wire 1 B inst|inst2~0_combout $end
$var wire 1 C inst|inst2~q $end
$var wire 1 D inst|inst1~0_combout $end
$var wire 1 E inst|inst1~1_combout $end
$var wire 1 F inst|inst1~q $end
$upscope $end
$upscope $end
$enddefinitions $end
#0
$dumpvars
1!
1"
1#
1$
0%
0(
0'
0&
0)
0*
0+
x,
0-
1.
x/
10
11
12
03
04
05
06
07
08
09
1:
1;
1<
1=
1>
1?
1@
0A
0B
0C
1D
0E
0F
$end
#30000
0$
0!
0?
0:
0@
0;
0,
#40000
1$
1?
1@
1,
#45000
1!
1:
1;
0,
1A
1B
0>
19
14
1(
1)
#50000
0!
0:
0;
1,
#55000
1!
1:
1;
0,
1C
0A
0B
1>
18
13
09
04
1'
1*
0(
0)
#60000
0!
0:
0;
1,
#65000
1!
1:
1;
0,
0C
1A
1B
0>
08
03
19
14
0'
0*
1(
1)
#70000
0!
0:
0;
1,
#75000
1!
1:
1;
0,
1C
0A
0B
1>
18
13
09
04
1'
1*
0(
0)
#80000
0"
0!
0<
0:
0;
1,
1B
#85000
1!
1:
1;
0,
1A
0>
19
14
1(
1)
#90000
0!
0:
0;
1,
#95000
1!
1:
1;
0,
0A
1>
09
04
0(
0)
#100000
0#
0!
0=
0:
0;
1,
0B
0>
#105000
1!
1:
1;
0,
0C
0D
1B
08
03
0'
0*
1E
#110000
0!
0:
0;
1,
#115000
1!
1:
1;
0,
1F
1C
0E
1D
0B
17
15
18
13
1&
1+
1'
1*
1E
#120000
1"
0!
1<
0:
0;
1,
0D
0E
#125000
1!
1:
1;
0,
0F
0C
1E
1D
1B
07
05
08
03
0&
0+
0'
0*
0E
#130000
0!
0:
0;
1,
#135000
1!
1:
1;
0,
1C
0D
0B
18
13
1'
1*
1E
#140000
0!
0:
0;
1,
#145000
1!
1:
1;
0,
1F
0C
0E
1D
1B
17
15
08
03
1&
1+
0'
0*
1E
#150000
1#
0!
1=
0:
0;
1,
0B
1>
#155000
1!
1:
1;
0,
1A
1B
0>
19
14
1(
1)
#160000
0"
0!
0<
0:
0;
1,
0B
#165000
1!
1:
1;
0,
0A
0D
1B
1>
09
04
0(
0)
0E
#170000
0!
0:
0;
1,
#175000
1!
1:
1;
0,
0F
1C
1A
1E
1D
0>
07
05
18
13
19
14
0&
0+
1'
1*
1(
1)
0E
#180000
0!
0:
0;
1,
#185000
1!
1:
1;
0,
0A
1>
09
04
0(
0)
#190000
0!
0:
0;
1,
#195000
1!
1:
1;
0,
1A
0>
19
14
1(
1)
#200000
0#
1"
0!
0=
1<
0:
0;
1,
0D
0B
1>
1E
#205000
1!
1:
1;
0,
1F
0C
0E
1D
1B
17
15
08
03
1&
1+
0'
0*
1E
#210000
0!
0:
0;
1,
#215000
1!
1:
1;
0,
1C
0D
0B
18
13
1'
1*
0E
#220000
0!
0:
0;
1,
#225000
1!
1:
1;
0,
0F
0C
1E
1D
1B
07
05
08
03
0&
0+
0'
0*
0E
#230000
0!
0:
0;
1,
#235000
1!
1:
1;
0,
1C
0D
0B
18
13
1'
1*
1E
#240000
0"
0!
0<
0:
0;
1,
1D
0E
#245000
1!
1:
1;
0,
0C
0D
1B
08
03
0'
0*
1E
#250000
1#
0!
1=
0:
0;
1,
1D
0B
0>
0E
#255000
1!
1:
1;
0,
0A
0D
1B
1>
09
04
0(
0)
1E
#260000
0!
0:
0;
1,
#265000
1!
1:
1;
0,
1F
1C
1A
0E
1D
0>
17
15
18
13
19
14
1&
1+
1'
1*
1(
1)
1E
#270000
0!
0:
0;
1,
#275000
1!
1:
1;
0,
0A
1>
09
04
0(
0)
#280000
1"
0!
1<
0:
0;
1,
0B
#285000
1!
1:
1;
0,
0C
1A
1B
0>
08
03
19
14
0'
0*
1(
1)
#290000
0!
0:
0;
1,
#295000
1!
1:
1;
0,
1C
0A
0B
1>
18
13
09
04
1'
1*
0(
0)
#300000
0#
0!
0=
0:
0;
1,
0D
0>
0E
#305000
1!
1:
1;
0,
0F
0C
1E
1D
1B
07
05
08
03
0&
0+
0'
0*
0E
#310000
0!
0:
0;
1,
#315000
1!
1:
1;
0,
1C
0D
0B
18
13
1'
1*
1E
#320000
0"
0!
0<
0:
0;
1,
1D
0E
#325000
1!
1:
1;
0,
0C
0D
1B
08
03
0'
0*
1E
#330000
0!
0:
0;
1,
#335000
1!
1:
1;
0,
1F
1C
0E
1D
0B
17
15
18
13
1&
1+
1'
1*
1E
#340000
0!
0:
0;
1,
#345000
1!
1:
1;
0,
0C
0D
1B
08
03
0'
0*
0E
#350000
1#
0!
1=
0:
0;
1,
1>
#355000
1!
1:
1;
0,
0F
1C
1A
1E
1D
0>
07
05
18
13
19
14
0&
0+
1'
1*
1(
1)
0E
#360000
1"
0!
1<
0:
0;
1,
0D
0B
1E
#365000
1!
1:
1;
0,
1F
0C
0A
0E
1D
1>
17
15
08
03
09
04
1&
1+
0'
0*
0(
0)
1E
#370000
0!
0:
0;
1,
#375000
1!
1:
1;
0,
1A
1B
0>
19
14
1(
1)
#380000
0!
0:
0;
1,
#385000
1!
1:
1;
0,
1C
0A
0B
1>
18
13
09
04
1'
1*
0(
0)
#390000
0!
0:
0;
1,
#395000
1!
1:
1;
0,
0C
1A
1B
0>
08
03
19
14
0'
0*
1(
1)
#400000
0#
0"
0!
0=
0<
0:
0;
1,
0D
1>
0E
#405000
1!
1:
1;
0,
0F
1C
1E
1D
0B
07
05
18
13
0&
0+
1'
1*
0E
#410000
0!
0:
0;
1,
#415000
1!
1:
1;
0,
0C
0D
1B
08
03
0'
0*
1E
#420000
0!
0:
0;
1,
#425000
1!
1:
1;
0,
1F
1C
0E
1D
0B
17
15
18
13
1&
1+
1'
1*
1E
#430000
0!
0:
0;
1,
#435000
1!
1:
1;
0,
0C
0D
1B
08
03
0'
0*
0E
#440000
1"
0!
1<
0:
0;
1,
1D
1E
#445000
1!
1:
1;
0,
1C
0D
0B
18
13
1'
1*
0E
#450000
1#
0!
1=
0:
0;
1,
0>
#455000
1!
1:
1;
0,
0F
0C
0A
1E
1D
1>
07
05
08
03
09
04
0&
0+
0'
0*
0(
0)
0E
#460000
0!
0:
0;
1,
#465000
1!
1:
1;
0,
1A
1B
0>
19
14
1(
1)
#470000
0!
0:
0;
1,
#475000
1!
1:
1;
0,
1C
0A
0B
1>
18
13
09
04
1'
1*
0(
0)
#480000
0"
0!
0<
0:
0;
1,
1B
#485000
1!
1:
1;
0,
1A
0>
19
14
1(
1)
#490000
0!
0:
0;
1,
#495000
1!
1:
1;
0,
0A
1>
09
04
0(
0)
#500000
0#
0!
0=
0:
0;
1,
0B
0>
#505000
1!
1:
1;
0,
0C
0D
1B
08
03
0'
0*
1E
#510000
0!
0:
0;
1,
#515000
1!
1:
1;
0,
1F
1C
0E
1D
0B
17
15
18
13
1&
1+
1'
1*
1E
#520000
1"
0!
1<
0:
0;
1,
0D
0E
#525000
1!
1:
1;
0,
0F
0C
1E
1D
1B
07
05
08
03
0&
0+
0'
0*
0E
#530000
0!
0:
0;
1,
#535000
1!
1:
1;
0,
1C
0D
0B
18
13
1'
1*
1E
#540000
0!
0:
0;
1,
#545000
1!
1:
1;
0,
1F
0C
0E
1D
1B
17
15
08
03
1&
1+
0'
0*
1E
#550000
1#
0!
1=
0:
0;
1,
0B
1>
#555000
1!
1:
1;
0,
1A
1B
0>
19
14
1(
1)
#560000
0"
0!
0<
0:
0;
1,
0B
#565000
1!
1:
1;
0,
0A
0D
1B
1>
09
04
0(
0)
0E
#570000
0!
0:
0;
1,
#575000
1!
1:
1;
0,
0F
1C
1A
1E
1D
0>
07
05
18
13
19
14
0&
0+
1'
1*
1(
1)
0E
#580000
0!
0:
0;
1,
#585000
1!
1:
1;
0,
0A
1>
09
04
0(
0)
#590000
0!
0:
0;
1,
#595000
1!
1:
1;
0,
1A
0>
19
14
1(
1)
#600000
0#
1"
0!
0=
1<
0:
0;
1,
0D
0B
1>
1E
#605000
1!
1:
1;
0,
1F
0C
0E
1D
1B
17
15
08
03
1&
1+
0'
0*
1E
#610000
0!
0:
0;
1,
#615000
1!
1:
1;
0,
1C
0D
0B
18
13
1'
1*
0E
#620000
0!
0:
0;
1,
#625000
1!
1:
1;
0,
0F
0C
1E
1D
1B
07
05
08
03
0&
0+
0'
0*
0E
#630000
0!
0:
0;
1,
#635000
1!
1:
1;
0,
1C
0D
0B
18
13
1'
1*
1E
#640000
0"
0!
0<
0:
0;
1,
1D
0E
#645000
1!
1:
1;
0,
0C
0D
1B
08
03
0'
0*
1E
#650000
1#
0!
1=
0:
0;
1,
1D
0B
0>
0E
#655000
1!
1:
1;
0,
0A
0D
1B
1>
09
04
0(
0)
1E
#660000
0!
0:
0;
1,
#665000
1!
1:
1;
0,
1F
1C
1A
0E
1D
0>
17
15
18
13
19
14
1&
1+
1'
1*
1(
1)
1E
#670000
0!
0:
0;
1,
#675000
1!
1:
1;
0,
0A
1>
09
04
0(
0)
#680000
1"
0!
1<
0:
0;
1,
0B
#685000
1!
1:
1;
0,
0C
1A
1B
0>
08
03
19
14
0'
0*
1(
1)
#690000
0!
0:
0;
1,
#695000
1!
1:
1;
0,
1C
0A
0B
1>
18
13
09
04
1'
1*
0(
0)
#700000
0#
0!
0=
0:
0;
1,
0D
0>
0E
#705000
1!
1:
1;
0,
0F
0C
1E
1D
1B
07
05
08
03
0&
0+
0'
0*
0E
#710000
0!
0:
0;
1,
#715000
1!
1:
1;
0,
1C
0D
0B
18
13
1'
1*
1E
#720000
0"
0!
0<
0:
0;
1,
1D
0E
#725000
1!
1:
1;
0,
0C
0D
1B
08
03
0'
0*
1E
#730000
0!
0:
0;
1,
#735000
1!
1:
1;
0,
1F
1C
0E
1D
0B
17
15
18
13
1&
1+
1'
1*
1E
#740000
0!
0:
0;
1,
#745000
1!
1:
1;
0,
0C
0D
1B
08
03
0'
0*
0E
#750000
1#
0!
1=
0:
0;
1,
1>
#755000
1!
1:
1;
0,
0F
1C
1A
1E
1D
0>
07
05
18
13
19
14
0&
0+
1'
1*
1(
1)
0E
#760000
1"
0!
1<
0:
0;
1,
0D
0B
1E
#765000
1!
1:
1;
0,
1F
0C
0A
0E
1D
1>
17
15
08
03
09
04
1&
1+
0'
0*
0(
0)
1E
#770000
0!
0:
0;
1,
#775000
1!
1:
1;
0,
1A
1B
0>
19
14
1(
1)
#780000
0!
0:
0;
1,
#785000
1!
1:
1;
0,
1C
0A
0B
1>
18
13
09
04
1'
1*
0(
0)
#790000
0!
0:
0;
1,
#795000
1!
1:
1;
0,
0C
1A
1B
0>
08
03
19
14
0'
0*
1(
1)
#800000
0#
0"
0!
0=
0<
0:
0;
1,
0D
1>
0E
#805000
1!
1:
1;
0,
0F
1C
1E
1D
0B
07
05
18
13
0&
0+
1'
1*
0E
#810000
0!
0:
0;
1,
#815000
1!
1:
1;
0,
0C
0D
1B
08
03
0'
0*
1E
#820000
0!
0:
0;
1,
#825000
1!
1:
1;
0,
1F
1C
0E
1D
0B
17
15
18
13
1&
1+
1'
1*
1E
#830000
0!
0:
0;
1,
#835000
1!
1:
1;
0,
0C
0D
1B
08
03
0'
0*
0E
#840000
1"
0!
1<
0:
0;
1,
1D
1E
#845000
1!
1:
1;
0,
1C
0D
0B
18
13
1'
1*
0E
#850000
1#
0!
1=
0:
0;
1,
0>
#855000
1!
1:
1;
0,
0F
0C
0A
1E
1D
1>
07
05
08
03
09
04
0&
0+
0'
0*
0(
0)
0E
#860000
0!
0:
0;
1,
#865000
1!
1:
1;
0,
1A
1B
0>
19
14
1(
1)
#870000
0!
0:
0;
1,
#875000
1!
1:
1;
0,
1C
0A
0B
1>
18
13
09
04
1'
1*
0(
0)
#880000
0"
0!
0<
0:
0;
1,
1B
#885000
1!
1:
1;
0,
1A
0>
19
14
1(
1)
#890000
0!
0:
0;
1,
#895000
1!
1:
1;
0,
0A
1>
09
04
0(
0)
#900000
0#
0!
0=
0:
0;
1,
0B
0>
#905000
1!
1:
1;
0,
0C
0D
1B
08
03
0'
0*
1E
#910000
0!
0:
0;
1,
#915000
1!
1:
1;
0,
1F
1C
0E
1D
0B
17
15
18
13
1&
1+
1'
1*
1E
#920000
1"
0!
1<
0:
0;
1,
0D
0E
#925000
1!
1:
1;
0,
0F
0C
1E
1D
1B
07
05
08
03
0&
0+
0'
0*
0E
#930000
0!
0:
0;
1,
#935000
1!
1:
1;
0,
1C
0D
0B
18
13
1'
1*
1E
#940000
0!
0:
0;
1,
#945000
1!
1:
1;
0,
1F
0C
0E
1D
1B
17
15
08
03
1&
1+
0'
0*
1E
#950000
1#
0!
1=
0:
0;
1,
0B
1>
#955000
1!
1:
1;
0,
1A
1B
0>
19
14
1(
1)
#960000
0"
0!
0<
0:
0;
1,
0B
#965000
1!
1:
1;
0,
0A
0D
1B
1>
09
04
0(
0)
0E
#970000
0!
0:
0;
1,
#975000
1!
1:
1;
0,
0F
1C
1A
1E
1D
0>
07
05
18
13
19
14
0&
0+
1'
1*
1(
1)
0E
#980000
0!
0:
0;
1,
#985000
1!
1:
1;
0,
0A
1>
09
04
0(
0)
#990000
0!
0:
0;
1,
#995000
1!
1:
1;
0,
1A
0>
19
14
1(
1)
