VERIFICADOR-COMPLETO/simulation/qsim/VERIFICADOR.msim.vcd
$comment
	File created using the following command:
		vcd file VERIFICADOR.msim.vcd -direction
$end
$date
	Sun Aug 05 15:38:49 2018
$end
$version
	ModelSim Version 10.1d
$end
$timescale
	1ps
$end
$scope module VERIFICADOR_vlg_vec_tst $end
$var reg 1 ! CLK $end
$var reg 1 " Ea $end
$var reg 1 # Eb $end
$var reg 1 $ RST $end
$var reg 1 % Sa $end
$var reg 1 & Sb $end
$var wire 1 ' ERROR $end
$var wire 1 ( INC [2] $end
$var wire 1 ) INC [1] $end
$var wire 1 * INC [0] $end
$var wire 1 + POS [2] $end
$var wire 1 , POS [1] $end
$var wire 1 - POS [0] $end
$var wire 1 . sampler $end
$scope module i1 $end
$var wire 1 / gnd $end
$var wire 1 0 vcc $end
$var wire 1 1 unknown $end
$var tri1 1 2 devclrn $end
$var tri1 1 3 devpor $end
$var tri1 1 4 devoe $end
$var wire 1 5 CLK~input_o $end
$var wire 1 6 CLK~inputclkctrl_outclk $end
$var wire 1 7 ERROR~output_o $end
$var wire 1 8 INC[2]~output_o $end
$var wire 1 9 INC[1]~output_o $end
$var wire 1 : INC[0]~output_o $end
$var wire 1 ; POS[2]~output_o $end
$var wire 1 < POS[1]~output_o $end
$var wire 1 = POS[0]~output_o $end
$var wire 1 > Eb~input_o $end
$var wire 1 ? Ea~input_o $end
$var wire 1 @ inst|inst10~combout $end
$var wire 1 A Sa~input_o $end
$var wire 1 B inst|inst11~0_combout $end
$var wire 1 C inst5|inst1~q $end
$var wire 1 D inst4|inst|inst6~0_combout $end
$var wire 1 E inst4|inst1|inst6~0_combout $end
$var wire 1 F Sb~input_o $end
$var wire 1 G inst|inst4~0_combout $end
$var wire 1 H inst5|inst~0_combout $end
$var wire 1 I RST~input_o $end
$var wire 1 J RST~inputclkctrl_outclk $end
$var wire 1 K inst5|inst~q $end
$var wire 1 L inst4|inst2|inst1~combout $end
$var wire 1 M inst5|inst2~q $end
$var wire 1 N inst4|inst1|inst1~combout $end
$var wire 1 O inst4|inst|inst~combout $end
$upscope $end
$upscope $end
$enddefinitions $end
#0
$dumpvars
0!
0"
0#
1$
0%
0&
1'
0*
1)
1(
0-
1,
1+
x.
0/
10
x1
12
13
14
05
06
17
18
19
0:
1;
1<
0=
0>
0?
0@
0A
1B
0C
0D
1E
0F
0G
1H
1I
1J
0K
1L
0M
0N
0O
$end
#20000
0$
0I
0J
0.
#30000
1$
1I
1J
1.
#50000
1!
1#
15
1>
16
0.
1@
07
0'
1K
1C
1N
0L
09
08
0)
0(
#60000
1&
0!
1F
05
06
1.
1G
0H
0;
0+
1L
18
1(
#70000
1!
15
16
0.
0K
0L
08
0(
#80000
0&
0!
0F
05
06
1.
0G
1H
1;
1+
1L
18
1(
#90000
1!
15
16
0.
1K
0L
08
0(
#100000
0#
1&
0!
0>
1F
05
06
1.
0@
17
1'
#110000
1!
15
16
0.
#120000
0&
0!
0F
05
06
1.
#130000
1!
15
16
0.
#140000
1&
0!
1F
05
06
1.
#150000
1%
1#
1!
1A
1>
15
16
0.
1G
1@
0H
0;
07
0+
0'
1L
18
1(
#160000
0&
0!
0F
05
06
1.
0G
1H
1;
1+
0L
08
0(
#170000
1!
15
16
0.
#180000
1&
0!
1F
05
06
1.
1G
0H
0;
0+
1L
18
1(
#190000
1!
15
16
0.
0K
0L
08
0(
#200000
0#
0&
0!
0>
0F
05
06
1.
0@
17
1'
#210000
1!
15
16
0.
#220000
1&
0!
1F
05
06
1.
#230000
1!
15
16
0.
#240000
0&
0!
0F
05
06
1.
#250000
1#
1!
1>
15
16
0.
0G
1@
1H
1;
07
1+
0'
1L
18
1(
#260000
1&
0!
1F
05
06
1.
1G
0H
0;
0+
0L
08
0(
#270000
1!
15
16
0.
#280000
0&
0!
0F
05
06
1.
0G
1H
1;
1+
1L
18
1(
#290000
1!
15
16
0.
1K
0L
08
0(
#300000
0%
0#
1&
0!
0A
0>
1F
05
06
1.
0@
17
1'
#310000
1!
15
16
0.
#320000
0&
0!
0F
05
06
1.
#330000
1!
15
16
0.
#340000
1&
0!
1F
05
06
1.
#350000
1"
1#
1!
1?
1>
15
16
0.
1@
1G
1O
1D
0H
07
0;
1:
1=
0'
0+
1*
1-
1L
18
1(
#360000
0&
0!
0F
05
06
1.
0G
0B
1H
0N
0E
1;
0<
1+
0,
0L
19
08
1)
0(
1L
18
1(
#370000
1!
15
16
0.
1M
0C
1N
1E
0O
09
0:
0)
0*
0L
08
0(
#380000
1&
0!
1F
05
06
1.
1G
1B
0H
0N
0;
1<
0+
1,
1L
19
18
1)
1(
#390000
1!
15
16
0.
0K
1C
1N
0L
09
08
0)
0(
#400000
0#
0&
0!
0>
0F
05
06
1.
0G
1O
0D
0B
1H
0E
1;
1:
0=
0<
1+
1*
0-
0,
1L
18
1(
0L
08
0(
#410000
1!
15
16
0.
0M
1K
0C
1E
0O
1L
0:
18
0*
1(
0L
08
0(
#420000
1&
0!
1F
05
06
1.
#430000
1!
15
16
0.
#440000
0&
0!
0F
05
06
1.
#450000
1%
1#
1!
1A
1>
15
16
0.
1B
1O
1D
0N
1<
1:
1=
1,
1*
1-
19
1)
#460000
1&
0!
1F
05
06
1.
1G
0B
0H
1N
0;
0<
0+
0,
1L
09
18
0)
1(
#470000
1!
15
16
0.
1M
0K
0O
0L
0:
08
0*
0(
#480000
0&
0!
0F
05
06
1.
0G
1B
1H
0N
1;
1<
1+
1,
1L
19
18
1)
1(
#490000
1!
15
16
0.
1K
1C
1N
0L
09
08
0)
0(
#500000
0#
1&
0!
0>
1F
05
06
1.
1G
1O
0D
0B
0H
0E
0;
1:
0=
0<
0+
1*
0-
0,
1L
18
1(
0L
08
0(
#510000
1!
15
16
0.
0M
0K
0C
1E
0O
1L
0:
18
0*
1(
0L
08
0(
#520000
0&
0!
0F
05
06
1.
#530000
1!
15
16
0.
#540000
1&
0!
1F
05
06
1.
#550000
1#
1!
1>
15
16
0.
1O
1D
1:
1=
1*
1-
#560000
0&
0!
0F
05
06
1.
0G
1B
1H
0N
1;
1<
1+
1,
1L
19
18
1)
1(
#570000
1!
15
16
0.
1M
1K
1C
1N
0O
0L
09
0:
08
0)
0*
0(
#580000
1&
0!
1F
05
06
1.
1G
0B
0H
0N
0E
0;
0<
0+
0,
1L
19
18
1)
1(
0L
08
0(
#590000
1!
15
16
0.
0K
0C
1N
1E
1L
09
18
0)
1(
0L
08
0(
#600000
0%
0#
0&
0!
0A
0>
0F
05
06
1.
0G
1O
0D
1H
0N
0E
1;
1:
0=
1+
1*
0-
1L
19
18
1)
1(
0L
08
0(
#610000
1!
15
16
0.
0M
1K
1N
1E
0O
1L
09
0:
18
0)
0*
1(
0L
08
0(
#620000
1&
0!
1F
05
06
1.
#630000
1!
15
16
0.
#640000
0&
0!
0F
05
06
1.
#650000
1#
1!
1>
15
16
0.
1O
1D
1:
1=
1*
1-
#660000
1&
0!
1F
05
06
1.
1G
1B
0H
0N
0;
1<
0+
1,
1L
19
18
1)
1(
#670000
1!
15
16
0.
1M
0K
1C
1N
0O
0L
09
0:
08
0)
0*
0(
#680000
0&
0!
0F
05
06
1.
0G
0B
1H
0N
0E
1;
0<
1+
0,
1L
19
18
1)
1(
0L
08
0(
#690000
1!
15
16
0.
1K
0C
1N
1E
1L
09
18
0)
1(
0L
08
0(
#700000
0"
0#
1&
0!
0?
0>
1F
05
06
1.
0@
1O
0D
1B
17
1:
0=
1<
1'
1*
0-
1,
#710000
1!
15
16
0.
0M
1C
0O
0:
0*
#720000
0&
0!
0F
05
06
1.
#730000
1!
15
16
0.
#740000
1&
0!
1F
05
06
1.
#750000
1%
1#
1!
1A
1>
15
16
0.
1G
1@
0H
0;
07
0+
0'
1L
18
1(
#760000
0&
0!
0F
05
06
1.
0G
1H
1;
1+
0L
08
0(
#770000
1!
15
16
0.
#780000
1&
0!
1F
05
06
1.
1G
0H
0;
0+
1L
18
1(
#790000
1!
15
16
0.
0K
0L
08
0(
#800000
0#
0&
0!
0>
0F
05
06
1.
0@
17
1'
#810000
1!
15
16
0.
#820000
1&
0!
1F
05
06
1.
#830000
1!
15
16
0.
#840000
0&
0!
0F
05
06
1.
#850000
1#
1!
1>
15
16
0.
0G
1@
1H
1;
07
1+
0'
1L
18
1(
#860000
1&
0!
1F
05
06
1.
1G
0H
0;
0+
0L
08
0(
#870000
1!
15
16
0.
#880000
0&
0!
0F
05
06
1.
0G
1H
1;
1+
1L
18
1(
#890000
1!
15
16
0.
1K
0L
08
0(
#900000
0%
0#
1&
0!
0A
0>
1F
05
06
1.
0@
17
1'
#910000
1!
15
16
0.
#920000
0&
0!
0F
05
06
1.
#930000
1!
15
16
0.
#940000
1&
0!
1F
05
06
1.
#950000
1#
1!
1>
15
16
0.
1G
1@
0H
0;
07
0+
0'
1L
18
1(
#960000
0&
0!
0F
05
06
1.
0G
1H
1;
1+
0L
08
0(
#970000
1!
15
16
0.
#980000
1&
0!
1F
05
06
1.
1G
0H
0;
0+
1L
18
1(
#990000
1!
15
16
0.
0K
0L
08
0(
#1000000
0#
0&
0!
0>
0F
05
06
1.
0G
0@
1H
1;
17
1+
1'
1L
18
1(
#1010000
1!
15
16
0.
1K
0L
08
0(
#1020000
1&
0!
1F
05
06
1.
#1030000
1!
15
16
0.
#1040000
0&
0!
0F
05
06
1.
#1050000
1"
1%
1#
1!
1?
1A
1>
15
16
0.
1@
1O
1D
07
1:
1=
0'
1*
1-
#1060000
1&
0!
1F
05
06
1.
1G
0B
0H
0N
0E
0;
0<
0+
0,
1L
19
18
1)
1(
0L
08
0(
#1070000
1!
15
16
0.
1M
0K
0C
1N
1E
0O
1L
09
0:
18
0)
0*
1(
0L
08
0(
#1080000
0&
0!
0F
05
06
1.
0G
1B
1H
0N
1;
1<
1+
1,
1L
19
18
1)
1(
#1090000
1!
15
16
0.
1K
1C
1N
0L
09
08
0)
0(
#1100000
0#
1&
0!
0>
1F
05
06
1.
1G
1O
0D
0B
0H
0E
0;
1:
0=
0<
0+
1*
0-
0,
1L
18
1(
0L
08
0(
#1110000
1!
15
16
0.
0M
0K
0C
1E
0O
1L
0:
18
0*
1(
0L
08
0(
#1120000
0&
0!
0F
05
06
1.
#1130000
1!
15
16
0.
#1140000
1&
0!
1F
05
06
1.
#1150000
1#
1!
1>
15
16
0.
1O
1D
1:
1=
1*
1-
#1160000
0&
0!
0F
05
06
1.
0G
1B
1H
0N
1;
1<
1+
1,
1L
19
18
1)
1(
#1170000
1!
15
16
0.
1M
1K
1C
1N
0O
0L
09
0:
08
0)
0*
0(
#1180000
1&
0!
1F
05
06
1.
1G
0B
0H
0N
0E
0;
0<
0+
0,
1L
19
18
1)
1(
0L
08
0(
#1190000
1!
15
16
0.
0K
0C
1N
1E
1L
09
18
0)
1(
0L
08
0(
#1200000
0%
0#
0&
0!
0A
0>
0F
05
06
1.
0G
1O
0D
1H
0N
0E
1;
1:
0=
1+
1*
0-
1L
19
18
1)
1(
0L
08
0(
#1210000
1!
15
16
0.
0M
1K
1N
1E
0O
1L
09
0:
18
0)
0*
1(
0L
08
0(
#1220000
1&
0!
1F
05
06
1.
#1230000
1!
15
16
0.
#1240000
0&
0!
0F
05
06
1.
#1250000
1#
1!
1>
15
16
0.
1O
1D
1:
1=
1*
1-
#1260000
1&
0!
1F
05
06
1.
1G
1B
0H
0N
0;
1<
0+
1,
1L
19
18
1)
1(
#1270000
1!
15
16
0.
1M
0K
1C
1N
0O
0L
09
0:
08
0)
0*
0(
#1280000
0&
0!
0F
05
06
1.
0G
0B
1H
0N
0E
1;
0<
1+
0,
1L
19
18
1)
1(
0L
08
0(
#1290000
1!
15
16
0.
1K
0C
1N
1E
1L
09
18
0)
1(
0L
08
0(
#1300000
0#
1&
0!
0>
1F
05
06
1.
1O
0D
0N
0E
1:
0=
1*
0-
19
1)
1L
18
1(
#1310000
1!
15
16
0.
0M
1N
1E
0O
09
0:
0)
0*
0L
08
0(
#1320000
0&
0!
0F
05
06
1.
#1330000
1!
15
16
0.
#1340000
1&
0!
1F
05
06
1.
#1350000
1%
1#
1!
1A
1>
15
16
0.
1G
1O
1D
0H
0;
1:
1=
0+
1*
1-
1L
18
1(
#1360000
0&
0!
0F
05
06
1.
0G
1B
1H
0N
1;
1<
1+
1,
0L
19
08
1)
0(
#1370000
1!
15
16
0.
1M
1C
1N
0O
09
0:
0)
0*
#1380000
1&
0!
1F
05
06
1.
1G
0B
0H
0N
0E
0;
0<
0+
0,
1L
19
18
1)
1(
0L
08
0(
#1390000
1!
15
16
0.
0K
0C
1N
1E
1L
09
18
0)
1(
0L
08
0(
#1400000
0"
0#
0&
0!
0?
0>
0F
05
06
1.
0@
1O
0D
1B
17
1:
0=
1<
1'
1*
0-
1,
#1410000
1!
15
16
0.
0M
1C
0O
0:
0*
#1420000
1&
0!
1F
05
06
1.
#1430000
1!
15
16
0.
#1440000
0&
0!
0F
05
06
1.
#1450000
1#
1!
1>
15
16
0.
0G
1@
1H
1;
07
1+
0'
1L
18
1(
#1460000
1&
0!
1F
05
06
1.
1G
0H
0;
0+
0L
08
0(
#1470000
1!
15
16
0.
#1480000
0&
0!
0F
05
06
1.
0G
1H
1;
1+
1L
18
1(
#1490000
1!
15
16
0.
1K
0L
08
0(
#1500000
0%
0#
1&
0!
0A
0>
1F
05
06
1.
0@
17
1'
#1510000
1!
15
16
0.
#1520000
0&
0!
0F
05
06
1.
#1530000
1!
15
16
0.
#1540000
1&
0!
1F
05
06
1.
#1550000
1#
1!
1>
15
16
0.
1G
1@
0H
0;
07
0+
0'
1L
18
1(
#1560000
0&
0!
0F
05
06
1.
0G
1H
1;
1+
0L
08
0(
#1570000
1!
15
16
0.
#1580000
1&
0!
1F
05
06
1.
1G
0H
0;
0+
1L
18
1(
#1590000
1!
15
16
0.
0K
0L
08
0(
#1600000
0#
0&
0!
0>
0F
05
06
1.
0G
0@
1H
1;
17
1+
1'
1L
18
1(
#1610000
1!
15
16
0.
1K
0L
08
0(
#1620000
1&
0!
1F
05
06
1.
#1630000
1!
15
16
0.
#1640000
0&
0!
0F
05
06
1.
#1650000
1%
1#
1!
1A
1>
15
16
0.
1@
07
0'
#1660000
1&
0!
1F
05
06
1.
1G
0H
0;
0+
1L
18
1(
#1670000
1!
15
16
0.
0K
0L
08
0(
#1680000
0&
0!
0F
05
06
1.
0G
1H
1;
1+
1L
18
1(
#1690000
1!
15
16
0.
1K
0L
08
0(
#1700000
0#
1&
0!
0>
1F
05
06
1.
1G
0@
0H
0;
17
0+
1'
1L
18
1(
#1710000
1!
15
16
0.
0K
0L
08
0(
#1720000
0&
0!
0F
05
06
1.
#1730000
1!
15
16
0.
#1740000
1&
0!
1F
05
06
1.
#1750000
1"
1#
1!
1?
1>
15
16
0.
1@
1O
1D
0B
0N
0E
07
1:
1=
0<
0'
1*
1-
0,
19
1)
1L
18
1(
#1760000
0&
0!
0F
05
06
1.
0G
1B
1H
1N
1E
1;
1<
1+
1,
0L
09
08
0)
0(
1L
18
1(
#1770000
1!
15
16
0.
1M
1K
0O
0L
0:
08
0*
0(
#1780000
1&
0!
1F
05
06
1.
1G
0B
0H
0N
0E
0;
0<
0+
0,
1L
19
18
1)
1(
0L
08
0(
#1790000
1!
15
16
0.
0K
0C
1N
1E
1L
09
18
0)
1(
0L
08
0(
#1800000
0%
0#
0&
0!
0A
0>
0F
05
06
1.
0G
1O
0D
1H
0N
0E
1;
1:
0=
1+
1*
0-
1L
19
18
1)
1(
0L
08
0(
#1810000
1!
15
16
0.
0M
1K
1N
1E
0O
1L
09
0:
18
0)
0*
1(
0L
08
0(
#1820000
1&
0!
1F
05
06
1.
#1830000
1!
15
16
0.
#1840000
0&
0!
0F
05
06
1.
#1850000
1#
1!
1>
15
16
0.
1O
1D
1:
1=
1*
1-
#1860000
1&
0!
1F
05
06
1.
1G
1B
0H
0N
0;
1<
0+
1,
1L
19
18
1)
1(
#1870000
1!
15
16
0.
1M
0K
1C
1N
0O
0L
09
0:
08
0)
0*
0(
#1880000
0&
0!
0F
05
06
1.
0G
0B
1H
0N
0E
1;
0<
1+
0,
1L
19
18
1)
1(
0L
08
0(
#1890000
1!
15
16
0.
1K
0C
1N
1E
1L
09
18
0)
1(
0L
08
0(
#1900000
0#
1&
0!
0>
1F
05
06
1.
1O
0D
0N
0E
1:
0=
1*
0-
19
1)
1L
18
1(
#1910000
1!
15
16
0.
0M
1N
1E
0O
09
0:
0)
0*
0L
08
0(
#1920000
0&
0!
0F
05
06
1.
#1930000
1!
15
16
0.
#1940000
1&
0!
1F
05
06
1.
#1950000
1%
1#
1!
1A
1>
15
16
0.
1G
1O
1D
0H
0;
1:
1=
0+
1*
1-
1L
18
1(
#1960000
0&
0!
0F
05
06
1.
0G
1B
1H
0N
1;
1<
1+
1,
0L
19
08
1)
0(
#1970000
1!
15
16
0.
1M
1C
1N
0O
09
0:
0)
0*
#1980000
1&
0!
1F
05
06
1.
1G
0B
0H
0N
0E
0;
0<
0+
0,
1L
19
18
1)
1(
0L
08
0(
#1990000
1!
15
16
0.
0K
0C
1N
1E
1L
09
18
0)
1(
0L
08
0(
#2000000
0#
0&
0!
0>
0F
05
06
1.
1O
0D
0N
0E
1:
0=
1*
0-
19
1)
1L
18
1(
#2010000
1!
15
16
0.
0M
1N
1E
0O
09
0:
0)
0*
0L
08
0(
#2020000
1&
0!
1F
05
06
1.
#2030000
1!
15
16
0.
#2040000
0&
0!
0F
05
06
1.
#2050000
1#
1!
1>
15
16
0.
0G
1O
1D
1B
1H
0N
1;
1:
1=
1<
1+
1*
1-
1,
1L
19
18
1)
1(
#2060000
1&
0!
1F
05
06
1.
1G
0B
0H
1N
0;
0<
0+
0,
0L
09
08
0)
0(
#2070000
1!
15
16
0.
1M
0O
0:
0*
#2080000
0&
0!
0F
05
06
1.
0G
1B
1H
0N
1;
1<
1+
1,
1L
19
18
1)
1(
#2090000
1!
15
16
0.
1K
1C
1N
0L
09
08
0)
0(
#2100000
0"
0%
0#
1&
0!
0?
0A
0>
1F
05
06
1.
0@
1O
0D
0N
0E
17
1:
0=
1'
1*
0-
19
1)
1L
18
1(
#2110000
1!
15
16
0.
0M
1N
1E
0O
09
0:
0)
0*
0L
08
0(
#2120000
0&
0!
0F
05
06
1.
#2130000
1!
15
16
0.
#2140000
1&
0!
1F
05
06
1.
#2150000
1#
1!
1>
15
16
0.
1G
1@
0H
0;
07
0+
0'
1L
18
1(
#2160000
0&
0!
0F
05
06
1.
0G
1H
1;
1+
0L
08
0(
#2170000
1!
15
16
0.
#2180000
1&
0!
1F
05
06
1.
1G
0H
0;
0+
1L
18
1(
#2190000
1!
15
16
0.
0K
0L
08
0(
#2200000
0#
0&
0!
0>
0F
05
06
1.
0G
0@
1H
1;
17
1+
1'
1L
18
1(
#2210000
1!
15
16
0.
1K
0L
08
0(
#2220000
1&
0!
1F
05
06
1.
#2230000
1!
15
16
0.
#2240000
0&
0!
0F
05
06
1.
#2250000
1%
1#
1!
1A
1>
15
16
0.
1@
07
0'
#2260000
1&
0!
1F
05
06
1.
1G
0H
0;
0+
1L
18
1(
#2270000
1!
15
16
0.
0K
0L
08
0(
#2280000
0&
0!
0F
05
06
1.
0G
1H
1;
1+
1L
18
1(
#2290000
1!
15
16
0.
1K
0L
08
0(
#2300000
0#
1&
0!
0>
1F
05
06
1.
1G
0@
0H
0;
17
0+
1'
1L
18
1(
#2310000
1!
15
16
0.
0K
0L
08
0(
#2320000
0&
0!
0F
05
06
1.
#2330000
1!
15
16
0.
#2340000
1&
0!
1F
05
06
1.
#2350000
1#
1!
1>
15
16
0.
1@
07
0'
#2360000
0&
0!
0F
05
06
1.
0G
1H
1;
1+
1L
18
1(
#2370000
1!
15
16
0.
1K
0L
08
0(
#2380000
1&
0!
1F
05
06
1.
1G
0H
0;
0+
1L
18
1(
#2390000
1!
15
16
0.
0K
0L
08
0(
#2400000
0%
0#
0&
0!
0A
0>
0F
05
06
1.
0G
0@
1H
1;
17
1+
1'
1L
18
1(
#2410000
1!
15
16
0.
1K
0L
08
0(
#2420000
1&
0!
1F
05
06
1.
#2430000
1!
15
16
0.
#2440000
0&
0!
0F
05
06
1.
#2450000
1"
1#
1!
1?
1>
15
16
0.
1@
1O
1D
0B
0N
0E
07
1:
1=
0<
0'
1*
1-
0,
19
1)
1L
18
1(
#2460000
1&
0!
1F
05
06
1.
1G
1B
0H
1N
1E
0;
1<
0+
1,
0L
09
08
0)
0(
1L
18
1(
#2470000
1!
15
16
0.
1M
0K
0O
0L
0:
08
0*
0(
#2480000
0&
0!
0F
05
06
1.
0G
0B
1H
0N
0E
1;
0<
1+
0,
1L
19
18
1)
1(
0L
08
0(
#2490000
1!
15
16
0.
1K
0C
1N
1E
1L
09
18
0)
1(
0L
08
0(
#2500000
0#
1&
0!
0>
1F
05
06
1.
1O
0D
0N
0E
1:
0=
1*
0-
19
1)
1L
18
1(
#2510000
1!
15
16
0.
0M
1N
1E
0O
09
0:
0)
0*
0L
08
0(
#2520000
0&
0!
0F
05
06
1.
#2530000
1!
15
16
0.
#2540000
1&
0!
1F
05
06
1.
#2550000
1%
1#
1!
1A
1>
15
16
0.
1G
1O
1D
0H
0;
1:
1=
0+
1*
1-
1L
18
1(
#2560000
0&
0!
0F
05
06
1.
0G
1B
1H
0N
1;
1<
1+
1,
0L
19
08
1)
0(
#2570000
1!
15
16
0.
1M
1C
1N
0O
09
0:
0)
0*
#2580000
1&
0!
1F
05
06
1.
1G
0B
0H
0N
0E
0;
0<
0+
0,
1L
19
18
1)
1(
0L
08
0(
#2590000
1!
15
16
0.
0K
0C
1N
1E
1L
09
18
0)
1(
0L
08
0(
#2600000
0#
0&
0!
0>
0F
05
06
1.
1O
0D
0N
0E
1:
0=
1*
0-
19
1)
1L
18
1(
#2610000
1!
15
16
0.
0M
1N
1E
0O
09
0:
0)
0*
0L
08
0(
#2620000
1&
0!
1F
05
06
1.
#2630000
1!
15
16
0.
#2640000
0&
0!
0F
05
06
1.
#2650000
1#
1!
1>
15
16
0.
0G
1O
1D
1B
1H
0N
1;
1:
1=
1<
1+
1*
1-
1,
1L
19
18
1)
1(
#2660000
1&
0!
1F
05
06
1.
1G
0B
0H
1N
0;
0<
0+
0,
0L
09
08
0)
0(
#2670000
1!
15
16
0.
1M
0O
0:
0*
#2680000
0&
0!
0F
05
06
1.
0G
1B
1H
0N
1;
1<
1+
1,
1L
19
18
1)
1(
#2690000
1!
15
16
0.
1K
1C
1N
0L
09
08
0)
0(
#2700000
0%
0#
1&
0!
0A
0>
1F
05
06
1.
0B
1O
0D
0E
0<
1:
0=
0,
1*
0-
1L
18
1(
#2710000
1!
15
16
0.
0M
0C
1E
0O
0:
0*
0L
08
0(
#2720000
0&
0!
0F
05
06
1.
#2730000
1!
15
16
0.
#2740000
1&
0!
1F
05
06
1.
#2750000
1#
1!
1>
15
16
0.
1G
1O
1D
1B
0H
0N
0;
1:
1=
1<
0+
1*
1-
1,
1L
19
18
1)
1(
#2760000
0&
0!
0F
05
06
1.
0G
0B
1H
1N
1;
0<
1+
0,
0L
09
08
0)
0(
#2770000
1!
15
16
0.
1M
0O
0:
0*
#2780000
1&
0!
1F
05
06
1.
1G
1B
0H
0N
0;
1<
0+
1,
1L
19
18
1)
1(
#2790000
1!
15
16
0.
0K
1C
1N
0L
09
08
0)
0(
#2800000
0"
0#
0&
0!
0?
0>
0F
05
06
1.
0@
0G
1O
0D
1H
0N
0E
17
1;
1:
0=
1'
1+
1*
0-
1L
19
18
1)
1(
0L
08
0(
#2810000
1!
15
16
0.
0M
1K
1N
1E
0O
1L
09
0:
18
0)
0*
1(
0L
08
0(
#2820000
1&
0!
1F
05
06
1.
#2830000
1!
15
16
0.
#2840000
0&
0!
0F
05
06
1.
#2850000
1%
1#
1!
1A
1>
15
16
0.
1@
07
0'
#2860000
1&
0!
1F
05
06
1.
1G
0H
0;
0+
1L
18
1(
#2870000
1!
15
16
0.
0K
0L
08
0(
#2880000
0&
0!
0F
05
06
1.
0G
1H
1;
1+
1L
18
1(
#2890000
1!
15
16
0.
1K
0L
08
0(
#2900000
0#
1&
0!
0>
1F
05
06
1.
1G
0@
0H
0;
17
0+
1'
1L
18
1(
#2910000
1!
15
16
0.
0K
0L
08
0(
#2920000
0&
0!
0F
05
06
1.
#2930000
1!
15
16
0.
#2940000
1&
0!
1F
05
06
1.
#2950000
1#
1!
1>
15
16
0.
1@
07
0'
#2960000
0&
0!
0F
05
06
1.
0G
1H
1;
1+
1L
18
1(
#2970000
1!
15
16
0.
1K
0L
08
0(
#2980000
1&
0!
1F
05
06
1.
1G
0H
0;
0+
1L
18
1(
#2990000
1!
15
16
0.
0K
0L
08
0(
