MOT/simulation/qsim/MOTOR.msim.vcd
$comment
	File created using the following command:
		vcd file MOTOR.msim.vcd -direction
$end
$date
	Mon Aug 06 16:05:22 2018
$end
$version
	ModelSim Version 10.1d
$end
$timescale
	1ps
$end
$scope module MOTOR_vlg_vec_tst $end
$var reg 1 ! CLK $end
$var reg 1 " HORARIO $end
$var reg 1 # MODO $end
$var reg 1 $ RST $end
$var wire 1 % Ea $end
$var wire 1 & Eb $end
$var wire 1 ' ERROR $end
$var wire 1 ( POSICION [2] $end
$var wire 1 ) POSICION [1] $end
$var wire 1 * POSICION [0] $end
$var wire 1 + Sa $end
$var wire 1 , Sb $end
$var wire 1 - sampler $end
$scope module i1 $end
$var wire 1 . gnd $end
$var wire 1 / vcc $end
$var wire 1 0 unknown $end
$var tri1 1 1 devclrn $end
$var tri1 1 2 devpor $end
$var tri1 1 3 devoe $end
$var wire 1 4 CLK~input_o $end
$var wire 1 5 ERROR~output_o $end
$var wire 1 6 Ea~output_o $end
$var wire 1 7 Sa~output_o $end
$var wire 1 8 Eb~output_o $end
$var wire 1 9 Sb~output_o $end
$var wire 1 : POSICION[2]~output_o $end
$var wire 1 ; POSICION[1]~output_o $end
$var wire 1 < POSICION[0]~output_o $end
$var wire 1 = MODO~input_o $end
$var wire 1 > inst|inst3~0_combout $end
$var wire 1 ? RST~input_o $end
$var wire 1 @ inst|inst3~q $end
$var wire 1 A HORARIO~input_o $end
$var wire 1 B inst|inst2~0_combout $end
$var wire 1 C inst|inst2~q $end
$var wire 1 D inst|inst45~0_combout $end
$var wire 1 E inst|inst1~0_combout $end
$var wire 1 F inst|inst1~1_combout $end
$var wire 1 G inst|inst1~q $end
$var wire 1 H inst|inst46~0_combout $end
$var wire 1 I inst|inst42~combout $end
$var wire 1 J inst|inst40~0_combout $end
$upscope $end
$upscope $end
$enddefinitions $end
#0
$dumpvars
1!
0"
1#
1$
1%
0&
0'
0*
0)
0(
1+
0,
x-
0.
1/
x0
11
12
13
14
05
16
17
08
09
0:
0;
0<
1=
1>
1?
0@
0A
1B
0C
0D
0E
1F
0G
0H
0I
0J
$end
#10000
0$
0?
0-
#20000
0!
1$
04
1?
1-
#30000
1!
14
0-
1G
1C
1@
0F
1E
0>
1:
1;
1<
1(
1)
1*
1I
1F
18
1&
#40000
0!
04
1-
#50000
1!
14
0-
0@
1H
1D
0B
1>
0<
0*
07
06
0+
0%
#60000
0!
04
1-
#70000
1!
14
0-
0C
1@
0D
0>
0;
1<
0)
1*
16
1%
#80000
0!
04
1-
#90000
1!
14
0-
0@
0E
1B
1>
0<
0*
0I
0F
08
0&
#100000
0!
04
1-
#110000
1!
14
0-
0G
1C
1@
1F
1E
0>
0:
1;
1<
0(
1)
1*
1J
1I
0F
19
18
1,
1&
#120000
0!
04
1-
#130000
1!
14
0-
0@
0H
1D
0B
1>
0<
0*
17
06
1+
0%
#140000
0!
04
1-
#150000
1!
14
0-
0C
1@
0D
0>
0;
1<
0)
1*
16
1%
#160000
0#
0!
0=
04
1-
0E
1B
1>
1F
#170000
1!
14
0-
1G
1C
0F
1E
1:
1;
1(
1)
0J
1F
09
0,
#180000
0!
04
1-
#190000
1!
14
0-
#200000
0!
04
1-
#210000
1!
14
0-
#220000
0!
04
1-
#230000
1!
14
0-
#240000
0!
04
1-
#250000
1!
14
0-
#260000
1#
0!
1=
04
1-
0>
#270000
1!
14
0-
0@
1H
1D
0B
1>
0<
0*
07
06
0+
0%
#280000
0!
04
1-
#290000
1!
14
0-
0C
1@
0D
0>
0;
1<
0)
1*
16
1%
#300000
0!
04
1-
#310000
1!
14
0-
0@
0E
1B
1>
0<
0*
0I
0F
08
0&
#320000
0!
04
1-
#330000
1!
14
0-
0G
1C
1@
1F
1E
0>
0:
1;
1<
0(
1)
1*
1J
1I
0F
19
18
1,
1&
#340000
0!
04
1-
#350000
1!
14
0-
0@
0H
1D
0B
1>
0<
0*
17
06
1+
0%
#360000
0!
04
1-
#370000
1!
14
0-
0C
1@
0D
0>
0;
1<
0)
1*
16
1%
#380000
0!
04
1-
#390000
1!
14
0-
0@
0E
1B
1>
0<
0*
0J
0I
1F
09
08
0,
0&
#400000
0#
0!
0=
04
1-
0>
#410000
1!
14
0-
1G
1C
1H
0F
1E
1D
0B
1:
1;
1(
1)
1I
1F
07
06
18
0+
0%
1&
#420000
0!
04
1-
#430000
1!
14
0-
0C
0E
0D
1B
0;
0)
0I
0F
16
08
1%
0&
#440000
0!
04
1-
#450000
1!
14
0-
0G
1C
0H
1F
1E
1D
0B
0:
1;
0(
1)
1J
1I
0F
17
06
19
18
1+
0%
1,
1&
#460000
0!
04
1-
#470000
1!
14
0-
0C
0E
0D
1B
0;
0)
0J
0I
1F
16
09
08
1%
0,
0&
#480000
0!
04
1-
#490000
1!
14
0-
1G
1C
1H
0F
1E
1D
0B
1:
1;
1(
1)
1I
1F
07
06
18
0+
0%
1&
#500000
0!
04
1-
#510000
1!
14
0-
0C
0E
0D
1B
0;
0)
0I
0F
16
08
1%
0&
#520000
0!
04
1-
#530000
1!
14
0-
0G
1C
0H
1F
1E
1D
0B
0:
1;
0(
1)
1J
1I
0F
17
06
19
18
1+
0%
1,
1&
#540000
0!
04
1-
#550000
1!
14
0-
0C
0E
0D
1B
0;
0)
0J
0I
1F
16
09
08
1%
0,
0&
#560000
0!
04
1-
#570000
1#
1!
1=
14
0-
1>
1G
1C
1H
0F
1E
1D
0B
1:
1;
1(
1)
1I
1F
07
06
18
0+
0%
1&
#580000
0!
04
1-
#590000
1!
14
0-
0C
1@
0D
0>
0;
1<
0)
1*
16
1%
#600000
0!
04
1-
#610000
1!
14
0-
0@
0E
1B
1>
0<
0*
0I
0F
08
0&
#620000
0!
04
1-
#630000
1!
14
0-
0G
1C
1@
1F
1E
0>
0:
1;
1<
0(
1)
1*
1J
1I
0F
19
18
1,
1&
#640000
0!
04
1-
#650000
1!
14
0-
0@
0H
1D
0B
1>
0<
0*
17
06
1+
0%
#660000
0!
04
1-
#670000
1!
14
0-
0C
1@
0D
0>
0;
1<
0)
1*
16
1%
#680000
0!
04
1-
#690000
1!
14
0-
0@
0E
1B
1>
0<
0*
0J
0I
1F
09
08
0,
0&
#700000
0!
04
1-
#710000
1!
14
0-
1G
1C
1@
0F
1E
0>
1:
1;
1<
1(
1)
1*
1I
1F
18
1&
#720000
0!
04
1-
#730000
1!
14
0-
0@
1H
1D
0B
1>
0<
0*
07
06
0+
0%
#740000
0!
04
1-
#750000
1!
14
0-
0C
1@
0D
0>
0;
1<
0)
1*
16
1%
#760000
0!
04
1-
#770000
1!
14
0-
0@
0E
1B
1>
0<
0*
0I
0F
08
0&
#780000
0!
04
1-
#790000
1!
14
0-
0G
1C
1@
1F
1E
0>
0:
1;
1<
0(
1)
1*
1J
1I
0F
19
18
1,
1&
#800000
0!
04
1-
#810000
1!
14
0-
0@
0H
1D
0B
1>
0<
0*
17
06
1+
0%
#820000
0!
04
1-
#830000
1!
14
0-
0C
1@
0D
0>
0;
1<
0)
1*
16
1%
#840000
0!
04
1-
#850000
1!
14
0-
0@
0E
1B
1>
0<
0*
0J
0I
1F
09
08
0,
0&
#860000
0!
04
1-
#870000
1!
14
0-
1G
1C
1@
0F
1E
0>
1:
1;
1<
1(
1)
1*
1I
1F
18
1&
#880000
0!
04
1-
#890000
1!
14
0-
0@
1H
1D
0B
1>
0<
0*
07
06
0+
0%
#900000
0!
04
1-
#910000
1!
14
0-
0C
1@
0D
0>
0;
1<
0)
1*
16
1%
#920000
0!
04
1-
#930000
1!
14
0-
0@
0E
1B
1>
0<
0*
0I
0F
08
0&
#940000
0!
04
1-
#950000
1!
14
0-
0G
1C
1@
1F
1E
0>
0:
1;
1<
0(
1)
1*
1J
1I
0F
19
18
1,
1&
#960000
0!
04
1-
#970000
1!
14
0-
0@
0H
1D
0B
1>
0<
0*
17
06
1+
0%
#980000
0!
04
1-
#990000
1!
14
0-
0C
1@
0D
0>
0;
1<
0)
1*
16
1%
