CONT/simulation/qsim/CONTROLADOR.msim.vcd
$comment
	File created using the following command:
		vcd file CONTROLADOR.msim.vcd -direction
$end
$date
	Mon Aug 06 21:32:15 2018
$end
$version
	ModelSim Version 10.1d
$end
$timescale
	1ps
$end
$scope module CONTROLADOR_vlg_vec_tst $end
$var reg 1 ! CLK $end
$var reg 1 " HORARIO $end
$var reg 1 # MODO $end
$var reg 1 $ nRST $end
$var wire 1 % SALIDA_Q0 $end
$var wire 1 & SALIDA_Q1 $end
$var wire 1 ' SALIDA_Q2 $end
$var wire 1 ( sampler $end
$scope module i1 $end
$var wire 1 ) gnd $end
$var wire 1 * vcc $end
$var wire 1 + unknown $end
$var tri1 1 , devclrn $end
$var tri1 1 - devpor $end
$var tri1 1 . devoe $end
$var wire 1 / SALIDA_Q2~output_o $end
$var wire 1 0 SALIDA_Q1~output_o $end
$var wire 1 1 SALIDA_Q0~output_o $end
$var wire 1 2 CLK~input_o $end
$var wire 1 3 MODO~input_o $end
$var wire 1 4 inst3~0_combout $end
$var wire 1 5 nRST~input_o $end
$var wire 1 6 inst3~q $end
$var wire 1 7 HORARIO~input_o $end
$var wire 1 8 inst2~0_combout $end
$var wire 1 9 inst2~q $end
$var wire 1 : inst1~0_combout $end
$var wire 1 ; inst1~1_combout $end
$var wire 1 < inst1~q $end
$upscope $end
$upscope $end
$enddefinitions $end
#0
$dumpvars
0!
0"
0#
1$
0%
0&
0'
x(
0)
1*
x+
1,
1-
1.
0/
00
01
02
03
04
15
06
07
18
09
0:
1;
0<
$end
#5000
1!
12
0(
1<
19
0;
1:
08
1/
10
1'
1&
1;
#10000
0$
0!
05
02
1(
0<
09
0;
0:
18
0/
00
0'
0&
1;
#15000
1!
12
0(
#20000
1$
0!
15
02
1(
#25000
1!
12
0(
1<
19
0;
1:
08
1/
10
1'
1&
1;
#30000
1#
1"
0!
13
17
02
1(
18
14
#35000
1!
12
0(
16
0:
08
04
11
1%
0;
#40000
0!
02
1(
#45000
1!
12
0(
0<
09
06
1;
1:
14
0/
00
01
0'
0&
0%
0;
#50000
0!
02
1(
#55000
1!
12
0(
16
18
04
11
1%
#60000
0!
02
1(
#65000
1!
12
0(
19
06
14
10
01
1&
0%
#70000
0!
02
1(
#75000
1!
12
0(
16
0:
08
04
11
1%
1;
#80000
0!
02
1(
#85000
1!
12
0(
1<
09
06
0;
1:
14
1/
00
01
1'
0&
0%
1;
#90000
0!
02
1(
#95000
1!
12
0(
16
18
04
11
1%
#100000
0!
02
1(
#105000
1!
12
0(
19
06
14
10
01
1&
0%
#110000
0!
02
1(
#115000
1!
12
0(
16
0:
08
04
11
1%
0;
#120000
0!
02
1(
#125000
1!
12
0(
0<
09
06
1;
1:
14
0/
00
01
0'
0&
0%
0;
#130000
0"
0!
07
02
1(
0:
18
1;
#135000
1!
12
0(
1<
19
16
0;
1:
04
1/
10
11
1'
1&
1%
1;
#140000
0!
02
1(
#145000
1!
12
0(
06
08
14
01
0%
#150000
0!
02
1(
#155000
1!
12
0(
09
16
04
00
11
0&
1%
#160000
0!
02
1(
#165000
1!
12
0(
06
0:
18
14
01
0%
0;
#170000
0!
02
1(
#175000
1!
12
0(
0<
19
16
1;
1:
04
0/
10
11
0'
1&
1%
0;
#180000
0!
02
1(
#185000
1!
12
0(
06
08
14
01
0%
#190000
0!
02
1(
#195000
1!
12
0(
09
16
04
00
11
0&
1%
#200000
0!
02
1(
#205000
1!
12
0(
06
0:
18
14
01
0%
1;
#210000
0!
02
1(
#215000
1!
12
0(
1<
19
16
0;
1:
04
1/
10
11
1'
1&
1%
1;
#220000
0!
02
1(
#225000
1!
12
0(
06
08
14
01
0%
#230000
0!
02
1(
#235000
1!
12
0(
09
16
04
00
11
0&
1%
#240000
0#
0!
03
02
1(
0:
18
14
0;
#245000
1!
12
0(
0<
19
1;
1:
08
0/
10
0'
1&
0;
#250000
0!
02
1(
#255000
1!
12
0(
09
0:
18
00
0&
1;
#260000
0!
02
1(
#265000
1!
12
0(
1<
19
0;
1:
08
1/
10
1'
1&
1;
#270000
1"
0!
17
02
1(
0:
0;
#275000
1!
12
0(
0<
09
1;
1:
18
0/
00
0'
0&
0;
#280000
0!
02
1(
#285000
1!
12
0(
19
0:
08
10
1&
1;
#290000
0!
02
1(
#295000
1!
12
0(
1<
09
0;
1:
18
1/
00
1'
0&
1;
#300000
0!
02
1(
#305000
1!
12
0(
19
0:
08
10
1&
0;
#310000
0!
02
1(
#315000
1!
12
0(
0<
09
1;
1:
18
0/
00
0'
0&
0;
#320000
0!
02
1(
#325000
1!
12
0(
19
0:
08
10
1&
1;
#330000
0!
02
1(
#335000
1!
12
0(
1<
09
0;
1:
18
1/
00
1'
0&
1;
#340000
0!
02
1(
#345000
1!
12
0(
19
0:
08
10
1&
0;
#350000
0!
02
1(
#355000
1!
12
0(
0<
09
1;
1:
18
0/
00
0'
0&
0;
#360000
0!
02
1(
#365000
1!
12
0(
19
0:
08
10
1&
1;
#370000
0!
02
1(
#375000
1!
12
0(
1<
09
0;
1:
18
1/
00
1'
0&
1;
#380000
0!
02
1(
#385000
1!
12
0(
19
0:
08
10
1&
0;
#390000
0"
0!
07
02
1(
1:
1;
#395000
1!
12
0(
09
0:
18
00
0&
0;
#400000
0!
02
1(
#405000
1!
12
0(
0<
19
1;
1:
08
0/
10
0'
1&
0;
#410000
0!
02
1(
#415000
1!
12
0(
09
0:
18
00
0&
1;
#420000
0!
02
1(
#425000
1!
12
0(
1<
19
0;
1:
08
1/
10
1'
1&
1;
#430000
0!
02
1(
#435000
1!
12
0(
09
0:
18
00
0&
0;
#440000
1#
1"
0!
13
17
02
1(
1:
04
1;
#445000
1!
12
0(
19
06
14
10
01
1&
0%
#450000
0!
02
1(
#455000
1!
12
0(
16
0:
08
04
11
1%
0;
#460000
0!
02
1(
#465000
1!
12
0(
0<
09
06
1;
1:
14
0/
00
01
0'
0&
0%
0;
#470000
0!
02
1(
#475000
1!
12
0(
16
18
04
11
1%
#480000
0!
02
1(
#485000
1!
12
0(
19
06
14
10
01
1&
0%
#490000
0!
02
1(
#495000
1!
12
0(
16
0:
08
04
11
1%
1;
#500000
0!
02
1(
#505000
1!
12
0(
1<
09
06
0;
1:
14
1/
00
01
1'
0&
0%
1;
#510000
0#
0"
0!
03
07
02
1(
0:
18
04
0;
#515000
1!
12
0(
0<
19
1;
1:
08
0/
10
0'
1&
0;
#520000
0!
02
1(
#525000
1!
12
0(
09
0:
18
00
0&
1;
#530000
0!
02
1(
#535000
1!
12
0(
1<
19
0;
1:
08
1/
10
1'
1&
1;
#540000
1#
0!
13
02
1(
14
#545000
1!
12
0(
09
16
04
00
11
0&
1%
#550000
0!
02
1(
#555000
1!
12
0(
06
0:
18
14
01
0%
0;
#560000
0!
02
1(
#565000
1!
12
0(
0<
19
16
1;
1:
04
0/
10
11
0'
1&
1%
0;
#570000
0!
02
1(
#575000
1!
12
0(
06
08
14
01
0%
#580000
0!
02
1(
#585000
1!
12
0(
09
16
04
00
11
0&
1%
#590000
0!
02
1(
#595000
1!
12
0(
06
0:
18
14
01
0%
1;
#600000
0#
0!
03
02
1(
04
#605000
1!
12
0(
1<
19
0;
1:
08
1/
10
1'
1&
1;
#610000
0!
02
1(
#615000
1!
12
0(
09
0:
18
00
0&
0;
#620000
1"
0!
17
02
1(
1:
1;
#625000
1!
12
0(
19
0:
08
10
1&
0;
#630000
0!
02
1(
#635000
1!
12
0(
0<
09
1;
1:
18
0/
00
0'
0&
0;
#640000
0!
02
1(
#645000
1!
12
0(
19
0:
08
10
1&
1;
#650000
0!
02
1(
#655000
1!
12
0(
1<
09
0;
1:
18
1/
00
1'
0&
1;
#660000
0!
02
1(
#665000
1!
12
0(
19
0:
08
10
1&
0;
#670000
0"
0!
07
02
1(
1:
1;
#675000
1!
12
0(
09
0:
18
00
0&
0;
#680000
0!
02
1(
#685000
1!
12
0(
0<
19
1;
1:
08
0/
10
0'
1&
0;
#690000
0!
02
1(
#695000
1!
12
0(
09
0:
18
00
0&
1;
#700000
0!
02
1(
#705000
1!
12
0(
1<
19
0;
1:
08
1/
10
1'
1&
1;
#710000
0!
02
1(
#715000
1!
12
0(
09
0:
18
00
0&
0;
#720000
1#
1"
0!
13
17
02
1(
1:
08
14
1;
#725000
1!
12
0(
16
18
04
11
1%
#730000
0!
02
1(
#735000
1!
12
0(
19
06
14
10
01
1&
0%
#740000
0!
02
1(
#745000
1!
12
0(
16
0:
08
04
11
1%
0;
#750000
0!
02
1(
#755000
1!
12
0(
0<
09
06
1;
1:
14
0/
00
01
0'
0&
0%
0;
#760000
0!
02
1(
#765000
1!
12
0(
16
18
04
11
1%
#770000
0!
02
1(
#775000
1!
12
0(
19
06
14
10
01
1&
0%
#780000
0!
02
1(
#785000
1!
12
0(
16
0:
08
04
11
1%
1;
#790000
0!
02
1(
#795000
1!
12
0(
1<
09
06
0;
1:
14
1/
00
01
1'
0&
0%
1;
#800000
0!
02
1(
#805000
1!
12
0(
16
18
04
11
1%
#810000
0!
02
1(
#815000
1!
12
0(
19
06
14
10
01
1&
0%
#820000
0#
0"
0!
03
07
02
1(
08
04
#825000
1!
12
0(
09
0:
18
00
0&
0;
#830000
0!
02
1(
#835000
1!
12
0(
0<
19
1;
1:
08
0/
10
0'
1&
0;
#840000
0!
02
1(
#845000
1!
12
0(
09
0:
18
00
0&
1;
#850000
0!
02
1(
#855000
1!
12
0(
1<
19
0;
1:
08
1/
10
1'
1&
1;
#860000
0!
02
1(
#865000
1!
12
0(
09
0:
18
00
0&
0;
#870000
0!
02
1(
#875000
1!
12
0(
0<
19
1;
1:
08
0/
10
0'
1&
0;
#880000
0!
02
1(
#885000
1!
12
0(
09
0:
18
00
0&
1;
#890000
1#
1"
0!
13
17
02
1(
1:
08
14
0;
#895000
1!
12
0(
16
18
04
11
1%
#900000
0!
02
1(
#905000
1!
12
0(
19
06
14
10
01
1&
0%
#910000
0!
02
1(
#915000
1!
12
0(
16
0:
08
04
11
1%
1;
#920000
0!
02
1(
#925000
1!
12
0(
1<
09
06
0;
1:
14
1/
00
01
1'
0&
0%
1;
#930000
0!
02
1(
#935000
1!
12
0(
16
18
04
11
1%
#940000
0!
02
1(
#945000
1!
12
0(
19
06
14
10
01
1&
0%
#950000
0#
0"
0!
03
07
02
1(
08
04
#955000
1!
12
0(
09
0:
18
00
0&
0;
#960000
0!
02
1(
#965000
1!
12
0(
0<
19
1;
1:
08
0/
10
0'
1&
0;
#970000
0!
02
1(
#975000
1!
12
0(
09
0:
18
00
0&
1;
#980000
0!
02
1(
#985000
1!
12
0(
1<
19
0;
1:
08
1/
10
1'
1&
1;
#990000
0!
02
1(
#995000
1!
12
0(
09
0:
18
00
0&
0;
